<?xml version="1.0" encoding="utf-8"?>
<!-- Generator: Adobe Illustrator 19.0.0, SVG Export Plug-In . SVG Version: 6.00 Build 0)  -->
<svg version="1.1" id="Capa_1" xmlns="http://www.w3.org/2000/svg" xmlns:xlink="http://www.w3.org/1999/xlink" x="0px" y="0px"
	 viewBox="0 0 480 320" style="enable-background:new 0 0 480 320;" xml:space="preserve">
<style type="text/css">
	.st0{fill:#00A9E0;}
</style>
<path id="XMLID_28_" class="st0" d="M440.3,71.7C415.6,28.2,356.6-1.6,286.4,8.4c-46.9,6.7-93.1,18.2-140.2,24.3
	c-24.2,3.1-48.6,5.2-73,6.2C49.6,39.8,23.1,41.6-0.4,44c-0.9,108,0,276,0.4,276c146,2.8,140,3.5,266.3,0.1
	c56.4-1.5,103.7-36.9,136.5-81.1C436.3,193.8,471.2,126.4,440.3,71.7z"/>
</svg>
