<?xml version="1.0" encoding="UTF-8"?>
<svg width="1858px" height="1825px" viewBox="0 0 1858 1825" version="1.1" xmlns="http://www.w3.org/2000/svg" xmlns:xlink="http://www.w3.org/1999/xlink">
    <!-- Generator: Sketch 51 (57462) - http://www.bohemiancoding.com/sketch -->
    <title>Fill 2 Copy 2</title>
    <desc>Created with Sketch.</desc>
    <defs></defs>
    <g id="Perfil" stroke="none" stroke-width="1" fill="none" fill-rule="evenodd">
        <path d="M550.954159,72.5367239 C429.047207,124.699713 314.5045,195.394537 203.274525,312.267964 C100.678086,420.07182 25.8200446,530.956323 -12.1506191,596.332916 C-25.2358435,618.862983 -35.7418792,646.448837 -40.6959128,665.396047 C-54.9430166,719.886046 -17.1275759,764.495812 7.49915844,776.692686 C34.3533741,789.991828 78.5761801,795.247202 130.070229,742.761503 C154.943879,717.409994 186.678774,674.255014 204.263498,650.170367 C258.196576,576.291862 321.243269,484.497132 379.726278,436.793759 C457.956652,372.987946 492.662395,396.528911 513.354196,413.944222 C548.138534,443.217498 531.709795,501.937068 504.245167,566.586592 C471.467593,643.743388 411.905883,778.542759 368.696283,884.457661 C329.685561,980.077604 312.984363,1115.11026 414.080969,1236.10828 C517.154865,1359.47478 638.368881,1416.5011 830.289218,1348.86618 C973.886114,1298.25972 1079.35974,1258.08365 1198.45303,1231.36159 C1335.40154,1200.63224 1436.67368,1220.64348 1459.36307,1284.39421 C1480.42885,1343.58489 1442.45884,1390.74847 1373.68003,1443.18945 C1312.84445,1489.57348 1239.97942,1533.14707 1186.214,1564.85493 C1166.70635,1576.35908 1127.76571,1599.90652 1108.78267,1616.43406 C1071.48398,1648.91045 1044.99326,1695.38714 1072.41139,1744.0729 C1101.62473,1795.95012 1168.33324,1805.14281 1225.62097,1785.84891 C1248.21409,1778.24061 1279.70338,1762.59566 1301.38415,1750.64309 C1410.8772,1690.27563 1480.12037,1644.01732 1576.58124,1561.95637 C1689.38113,1465.99817 1779.76867,1362.22883 1842.53177,1252.29626 C1902.55653,1147.15702 1912.71937,1042.88548 1857.38601,960.395548 C1796.13584,869.081642 1660.92622,812.949582 1507.19727,845.534197 C1365.49448,875.568886 1228.43791,917.365634 1155.62527,934.968869 C1081.77061,952.824828 1020.70252,943.525862 973.719757,894.054065 C916.267638,833.555703 921.108365,740.740355 958.116909,647.665154 C990.387552,566.512719 1049.65846,409.211793 1058.62734,342.082977 C1067.04932,279.035985 1080.61659,204.048084 1013.49873,119.40157 C960.449837,52.4976135 830.732619,-47.1788813 550.954159,72.5367239 Z" id="Fill-2-Copy-2" fill="#00A9E0" transform="translate(924.955533, 905.879273) rotate(9.000000) translate(-924.955533, -905.879273) "></path>
    </g>
</svg>