<?xml version="1.0" encoding="UTF-8"?>
<svg width="104px" height="19px" viewBox="0 0 104 19" version="1.1" xmlns="http://www.w3.org/2000/svg" xmlns:xlink="http://www.w3.org/1999/xlink">
    <!-- Generator: Sketch 50.2 (55047) - http://www.bohemiancoding.com/sketch -->
    <title>Group 14</title>
    <desc>Created with Sketch.</desc>
    <defs></defs>
    <g id="Detalles-Desktop---Mobile" stroke="none" stroke-width="1" fill="none" fill-rule="evenodd">
        <g id="Group-14" transform="translate(0.000000, 1.000000)">
            <g id="Group-13">
                <path d="M2.68039827,10.177 C2.95139827,10.441 3.08839827,10.817 3.03339827,11.201 C2.79639827,12.458 2.71439827,13.366 2.68239827,14.642 C2.67539827,14.925 2.68139827,15.322 2.72139827,15.574 C2.75939827,15.823 2.84639827,16.045 2.97539827,16.212 C3.01039827,16.26 3.05039827,16.302 3.09439827,16.339 L3.09739827,16.342 C3.11339827,16.355 3.12939827,16.367 3.14539827,16.379 C3.16139827,16.391 3.17839827,16.402 3.19539827,16.412 L3.20039827,16.415 C3.24939827,16.446 3.30239827,16.47 3.35839827,16.488 C3.55839827,16.558 3.79939827,16.572 4.05039827,16.531 C4.30439827,16.489 4.68639827,16.373 4.95639827,16.279 C6.02239827,15.906 6.80839827,15.582 7.75039827,15.096 C8.08839827,14.923 8.49639827,14.911 8.84839827,15.083 C9.80239827,15.576 10.5943983,15.903 11.6693983,16.279 C11.9393983,16.373 12.3213983,16.489 12.5763983,16.531 C12.8263983,16.572 13.0673983,16.558 13.2673983,16.488 C13.3243983,16.47 13.3763983,16.446 13.4263983,16.415 L13.4313983,16.412 C13.4473983,16.402 13.4643983,16.391 13.4803983,16.379 C13.4963983,16.367 13.5123983,16.355 13.5273983,16.343 L13.5313983,16.339 C13.5763983,16.302 13.6163983,16.26 13.6503983,16.212 C13.7793983,16.045 13.8673983,15.823 13.9053983,15.574 C13.9443983,15.322 13.9503983,14.925 13.9433983,14.642 C13.9113983,13.38 13.8293983,12.471 13.5993983,11.235 C13.5373983,10.864 13.6523983,10.475 13.9263983,10.196 C14.6873983,9.456 15.2423983,8.813 15.9313983,7.921 C16.1043983,7.696 16.3353983,7.372 16.4533983,7.145 C16.5703983,6.921 16.6313983,6.691 16.6253983,6.48 C16.6253983,6.422 16.6183983,6.364 16.6043983,6.308 C16.6043983,6.306 16.6043983,6.305 16.6043983,6.305 C16.5983983,6.284 16.5933983,6.265 16.5863983,6.246 C16.5803983,6.227 16.5743983,6.209 16.5663983,6.19 L16.5653983,6.187 C16.5423983,6.132 16.5143983,6.081 16.4793983,6.034 C16.3593983,5.861 16.1723983,5.71 15.9453983,5.597 C15.7153983,5.482 15.3363983,5.354 15.0623983,5.273 C14.0543983,4.976 13.2663983,4.785 12.3143983,4.635 C11.9393983,4.579 11.6023983,4.35 11.4193983,4.006 C10.8893983,2.918 10.4233983,2.149 9.71839827,1.135 C9.55639827,0.902 9.31539827,0.585 9.13439827,0.403 C8.95539827,0.224 8.75339827,0.095 8.54939827,0.036 C8.49339827,0.017 8.43639827,0.006 8.37839827,0.002 L8.37239827,0.001 C8.35239827,0 8.33239827,0 8.31239827,0 C8.29339827,0 8.27339827,0 8.25339827,0.001 L8.24739827,0.002 C8.18939827,0.006 8.13239827,0.017 8.07639827,0.036 C7.87239827,0.095 7.67039827,0.224 7.49139827,0.403 C7.31039827,0.585 7.07039827,0.902 6.90739827,1.135 C6.20239827,2.149 5.73539827,2.918 5.20539827,4.008 C5.04539827,4.337 4.72639827,4.564 4.34939827,4.629 C3.37539827,4.781 2.58939827,4.97 1.56339827,5.273 C1.28939827,5.354 0.910398269,5.483 0.680398269,5.597 C0.453398269,5.71 0.266398269,5.861 0.146398269,6.035 C0.111398269,6.082 0.0833982693,6.132 0.0613982693,6.186 L0.0593982693,6.191 C0.0523982693,6.209 0.0453982693,6.227 0.0393982693,6.246 C0.0333982693,6.265 0.0273982693,6.284 0.0223982693,6.303 C0.0223982693,6.303 0.0213982693,6.307 0.0213982693,6.308 C0.00739826926,6.364 0.000398269256,6.422 0.000398269256,6.48 C-0.00560173074,6.691 0.0563982693,6.921 0.172398269,7.145 C0.291398269,7.372 0.521398269,7.697 0.695398269,7.921 C1.37739827,8.805 1.92939827,9.445 2.68039827,10.177" id="Fill-1" fill="#FCD600"></path>
                <path d="M24.4497085,10.1766569 C24.7207085,10.4406569 24.8577085,10.8166569 24.8027085,11.2006569 C24.5667085,12.4576569 24.4837085,13.3656569 24.4517085,14.6416569 C24.4447085,14.9246569 24.4507085,15.3216569 24.4907085,15.5736569 C24.5287085,15.8226569 24.6167085,16.0446569 24.7457085,16.2116569 C24.7797085,16.2596569 24.8197085,16.3016569 24.8637085,16.3386569 C24.9307085,16.3906569 24.9477085,16.4016569 24.9647085,16.4116569 C25.0187085,16.4456569 25.0717085,16.4696569 25.1277085,16.4876569 C25.3277085,16.5576569 25.5687085,16.5716569 25.8197085,16.5306569 C26.0737085,16.4886569 26.4557085,16.3726569 26.7257085,16.2786569 C27.7917085,15.9056569 28.5777085,15.5816569 29.5197085,15.0956569 C29.8577085,14.9226569 30.2657085,14.9106569 30.6177085,15.0826569 C31.5717085,15.5756569 32.3637085,15.9026569 33.4387085,16.2786569 C33.7087085,16.3726569 34.0907085,16.4886569 34.3457085,16.5306569 C34.5957085,16.5716569 34.8367085,16.5576569 35.0367085,16.4876569 C35.0937085,16.4696569 35.1457085,16.4456569 35.1957085,16.4146569 C35.2657085,16.3666569 35.2817085,16.3546569 35.2967085,16.3426569 C35.3457085,16.3016569 35.3857085,16.2596569 35.4197085,16.2116569 C35.5487085,16.0446569 35.6367085,15.8226569 35.6747085,15.5736569 C35.7137085,15.3216569 35.7197085,14.9246569 35.7127085,14.6416569 C35.6807085,13.3796569 35.5987085,12.4706569 35.3687085,11.2346569 C35.3067085,10.8636569 35.4217085,10.4746569 35.6957085,10.1956569 C36.4567085,9.45565685 37.0117085,8.81265685 37.6997085,7.92065685 C37.8737085,7.69565685 38.1047085,7.37165685 38.2227085,7.14465685 C38.3397085,6.92065685 38.4007085,6.69065685 38.3947085,6.47965685 C38.3957085,6.42165685 38.3877085,6.36365685 38.3737085,6.30765685 C38.3677085,6.28365685 38.3627085,6.26465685 38.3557085,6.24565685 C38.3497085,6.22665685 38.3437085,6.20865685 38.3367085,6.18965685 C38.3117085,6.13165685 38.2837085,6.08065685 38.2487085,6.03365685 C38.1287085,5.86065685 37.9417085,5.70965685 37.7147085,5.59665685 C37.4847085,5.48165685 37.1057085,5.35365685 36.8317085,5.27265685 C35.8237085,4.97565685 35.0357085,4.78465685 34.0837085,4.63465685 C33.7087085,4.57865685 33.3717085,4.34965685 33.1887085,4.00565685 C32.6587085,2.91765685 32.1927085,2.14865685 31.4877085,1.13465685 C31.3247085,0.901656854 31.0847085,0.584656854 30.9037085,0.402656854 C30.7247085,0.223656854 30.5227085,0.0946568542 30.3187085,0.0356568542 C30.2627085,0.0166568542 30.2057085,0.00565685425 30.1477085,0.00165685425 C30.0627085,-0.000343145751 30.0427085,-0.000343145751 30.0227085,0.000656854249 C29.9587085,0.00565685425 29.9017085,0.0166568542 29.8457085,0.0356568542 C29.6417085,0.0946568542 29.4397085,0.223656854 29.2617085,0.402656854 C29.0797085,0.584656854 28.8397085,0.901656854 28.6767085,1.13465685 C27.9717085,2.14865685 27.5047085,2.91765685 26.9747085,4.00765685 C26.8147085,4.33665685 26.4957085,4.56365685 26.1197085,4.62865685 C25.1447085,4.78065685 24.3587085,4.96965685 23.3327085,5.27265685 C23.0587085,5.35365685 22.6797085,5.48265685 22.4497085,5.59665685 C22.2227085,5.70965685 22.0367085,5.86065685 21.9167085,6.03465685 C21.8807085,6.08165685 21.8527085,6.13165685 21.8307085,6.18565685 C21.8217085,6.20865685 21.8147085,6.22665685 21.8087085,6.24565685 C21.8027085,6.26465685 21.7967085,6.28365685 21.7917085,6.30265685 C21.7767085,6.36365685 21.7697085,6.42165685 21.7697085,6.47965685 C21.7637085,6.69065685 21.8257085,6.92065685 21.9417085,7.14465685 C22.0607085,7.37165685 22.2907085,7.69665685 22.4647085,7.92065685 C23.1467085,8.80465685 23.6987085,9.44465685 24.4497085,10.1766569 L7,10.1766569" id="Fill-4" fill="#FCD600"></path>
                <path d="M88.6803983,10.177 C88.9513983,10.441 89.0883983,10.817 89.0333983,11.201 C88.7963983,12.458 88.7143983,13.366 88.6823983,14.642 C88.6753983,14.925 88.6813983,15.322 88.7213983,15.574 C88.7593983,15.823 88.8463983,16.045 88.9753983,16.212 C89.0103983,16.26 89.0503983,16.302 89.0943983,16.339 L89.0973983,16.342 C89.1133983,16.355 89.1293983,16.367 89.1453983,16.379 C89.1613983,16.391 89.1783983,16.402 89.1953983,16.412 L89.2003983,16.415 C89.2493983,16.446 89.3023983,16.47 89.3583983,16.488 C89.5583983,16.558 89.7993983,16.572 90.0503983,16.531 C90.3043983,16.489 90.6863983,16.373 90.9563983,16.279 C92.0223983,15.906 92.8083983,15.582 93.7503983,15.096 C94.0883983,14.923 94.4963983,14.911 94.8483983,15.083 C95.8023983,15.576 96.5943983,15.903 97.6693983,16.279 C97.9393983,16.373 98.3213983,16.489 98.5763983,16.531 C98.8263983,16.572 99.0673983,16.558 99.2673983,16.488 C99.3243983,16.47 99.3763983,16.446 99.4263983,16.415 L99.4303983,16.412 C99.4473983,16.402 99.4643983,16.391 99.4803983,16.379 C99.4963983,16.367 99.5123983,16.355 99.5273983,16.343 L99.5313983,16.339 C99.5763983,16.302 99.6163983,16.26 99.6503983,16.212 C99.7793983,16.045 99.8673983,15.823 99.9053983,15.574 C99.9443983,15.322 99.9503983,14.925 99.9433983,14.642 C99.9113983,13.38 99.8293983,12.471 99.5993983,11.235 C99.5373983,10.864 99.6523983,10.475 99.9263983,10.196 C100.687398,9.456 101.242398,8.813 101.930398,7.921 C102.104398,7.696 102.335398,7.372 102.453398,7.145 C102.570398,6.921 102.631398,6.691 102.625398,6.48 C102.625398,6.422 102.618398,6.364 102.604398,6.308 C102.604398,6.306 102.604398,6.305 102.604398,6.305 C102.598398,6.284 102.593398,6.265 102.586398,6.246 C102.580398,6.227 102.574398,6.209 102.566398,6.19 L102.565398,6.187 C102.542398,6.132 102.514398,6.081 102.479398,6.034 C102.359398,5.861 102.172398,5.71 101.945398,5.597 C101.715398,5.482 101.336398,5.354 101.062398,5.273 C100.054398,4.976 99.2663983,4.785 98.3143983,4.635 C97.9393983,4.579 97.6023983,4.35 97.4193983,4.006 C96.8893983,2.918 96.4233983,2.149 95.7183983,1.135 C95.5553983,0.902 95.3153983,0.585 95.1343983,0.403 C94.9553983,0.224 94.7533983,0.095 94.5493983,0.036 C94.4933983,0.017 94.4363983,0.006 94.3783983,0.002 L94.3723983,0.001 C94.3523983,0 94.3323983,0 94.3123983,0 C94.2923983,0 94.2733983,0 94.2533983,0.001 L94.2473983,0.002 C94.1893983,0.006 94.1323983,0.017 94.0763983,0.036 C93.8723983,0.095 93.6703983,0.224 93.4913983,0.403 C93.3103983,0.585 93.0703983,0.902 92.9073983,1.135 C92.2023983,2.149 91.7353983,2.918 91.2053983,4.008 C91.0453983,4.337 90.7263983,4.564 90.3493983,4.629 C89.3753983,4.781 88.5893983,4.97 87.5633983,5.273 C87.2893983,5.354 86.9103983,5.483 86.6803983,5.597 C86.4533983,5.71 86.2673983,5.861 86.1463983,6.035 C86.1113983,6.082 86.0833983,6.132 86.0613983,6.186 L86.0593983,6.191 C86.0523983,6.209 86.0453983,6.227 86.0393983,6.246 C86.0333983,6.265 86.0273983,6.284 86.0223983,6.303 C86.0223983,6.303 86.0213983,6.307 86.0213983,6.308 C86.0073983,6.364 86.0003983,6.422 86.0003983,6.48 C85.9943983,6.691 86.0563983,6.921 86.1723983,7.145 C86.2913983,7.372 86.5213983,7.697 86.6953983,7.921 C87.3783983,8.805 87.9293983,9.445 88.6803983,10.177 Z" id="Stroke-10" stroke="#D3D5D4"></path>
                <path d="M66.6803983,10.177 C66.9513983,10.441 67.0883983,10.817 67.0333983,11.201 C66.7963983,12.458 66.7143983,13.366 66.6823983,14.642 C66.6753983,14.925 66.6813983,15.322 66.7213983,15.574 C66.7593983,15.823 66.8463983,16.045 66.9753983,16.212 C67.0103983,16.26 67.0503983,16.302 67.0943983,16.339 L67.0973983,16.342 C67.1133983,16.355 67.1293983,16.367 67.1453983,16.379 C67.1613983,16.391 67.1783983,16.402 67.1953983,16.412 L67.2003983,16.415 C67.2493983,16.446 67.3023983,16.47 67.3583983,16.488 C67.5583983,16.558 67.7993983,16.572 68.0503983,16.531 C68.3043983,16.489 68.6863983,16.373 68.9563983,16.279 C70.0223983,15.906 70.8083983,15.582 71.7503983,15.096 C72.0883983,14.923 72.4963983,14.911 72.8483983,15.083 C73.8023983,15.576 74.5943983,15.903 75.6693983,16.279 C75.9393983,16.373 76.3213983,16.489 76.5763983,16.531 C76.8263983,16.572 77.0673983,16.558 77.2673983,16.488 C77.3243983,16.47 77.3763983,16.446 77.4263983,16.415 L77.4303983,16.412 C77.4473983,16.402 77.4643983,16.391 77.4803983,16.379 C77.4963983,16.367 77.5123983,16.355 77.5273983,16.343 L77.5313983,16.339 C77.5763983,16.302 77.6163983,16.26 77.6503983,16.212 C77.7793983,16.045 77.8673983,15.823 77.9053983,15.574 C77.9443983,15.322 77.9503983,14.925 77.9433983,14.642 C77.9113983,13.38 77.8293983,12.471 77.5993983,11.235 C77.5373983,10.864 77.6523983,10.475 77.9263983,10.196 C78.6873983,9.456 79.2423983,8.813 79.9303983,7.921 C80.1043983,7.696 80.3353983,7.372 80.4533983,7.145 C80.5703983,6.921 80.6313983,6.691 80.6253983,6.48 C80.6253983,6.422 80.6183983,6.364 80.6043983,6.308 C80.6043983,6.306 80.6043983,6.305 80.6043983,6.305 C80.5983983,6.284 80.5933983,6.265 80.5863983,6.246 C80.5803983,6.227 80.5743983,6.209 80.5663983,6.19 L80.5653983,6.187 C80.5423983,6.132 80.5143983,6.081 80.4793983,6.034 C80.3593983,5.861 80.1723983,5.71 79.9453983,5.597 C79.7153983,5.482 79.3363983,5.354 79.0623983,5.273 C78.0543983,4.976 77.2663983,4.785 76.3143983,4.635 C75.9393983,4.579 75.6023983,4.35 75.4193983,4.006 C74.8893983,2.918 74.4233983,2.149 73.7183983,1.135 C73.5553983,0.902 73.3153983,0.585 73.1343983,0.403 C72.9553983,0.224 72.7533983,0.095 72.5493983,0.036 C72.4933983,0.017 72.4363983,0.006 72.3783983,0.002 L72.3723983,0.001 C72.3523983,0 72.3323983,0 72.3123983,0 C72.2923983,0 72.2733983,0 72.2533983,0.001 L72.2473983,0.002 C72.1893983,0.006 72.1323983,0.017 72.0763983,0.036 C71.8723983,0.095 71.6703983,0.224 71.4913983,0.403 C71.3103983,0.585 71.0703983,0.902 70.9073983,1.135 C70.2023983,2.149 69.7353983,2.918 69.2053983,4.008 C69.0453983,4.337 68.7263983,4.564 68.3493983,4.629 C67.3753983,4.781 66.5893983,4.97 65.5633983,5.273 C65.2893983,5.354 64.9103983,5.483 64.6803983,5.597 C64.4533983,5.71 64.2673983,5.861 64.1463983,6.035 C64.1113983,6.082 64.0833983,6.132 64.0613983,6.186 L64.0593983,6.191 C64.0523983,6.209 64.0453983,6.227 64.0393983,6.246 C64.0333983,6.265 64.0273983,6.284 64.0223983,6.303 C64.0223983,6.303 64.0213983,6.307 64.0213983,6.308 C64.0073983,6.364 64.0003983,6.422 64.0003983,6.48 C63.9943983,6.691 64.0563983,6.921 64.1723983,7.145 C64.2913983,7.372 64.5213983,7.697 64.6953983,7.921 C65.3783983,8.805 65.9293983,9.445 66.6803983,10.177 Z" id="Stroke-10" stroke="#D3D5D4"></path>
                <path d="M45.6803983,10.177 C45.9513983,10.441 46.0883983,10.817 46.0333983,11.201 C45.7963983,12.458 45.7143983,13.366 45.6823983,14.642 C45.6753983,14.925 45.6813983,15.322 45.7213983,15.574 C45.7593983,15.823 45.8463983,16.045 45.9753983,16.212 C46.0103983,16.26 46.0503983,16.302 46.0943983,16.339 L46.0973983,16.342 C46.1133983,16.355 46.1293983,16.367 46.1453983,16.379 C46.1613983,16.391 46.1783983,16.402 46.1953983,16.412 L46.2003983,16.415 C46.2493983,16.446 46.3023983,16.47 46.3583983,16.488 C46.5583983,16.558 46.7993983,16.572 47.0503983,16.531 C47.3043983,16.489 47.6863983,16.373 47.9563983,16.279 C49.0223983,15.906 49.8083983,15.582 50.7503983,15.096 C51.0883983,14.923 51.4963983,14.911 51.8483983,15.083 C52.8023983,15.576 53.5943983,15.903 54.6693983,16.279 C54.9393983,16.373 55.3213983,16.489 55.5763983,16.531 C55.8263983,16.572 56.0673983,16.558 56.2673983,16.488 C56.3243983,16.47 56.3763983,16.446 56.4263983,16.415 L56.4303983,16.412 C56.4473983,16.402 56.4643983,16.391 56.4803983,16.379 C56.4963983,16.367 56.5123983,16.355 56.5273983,16.343 L56.5313983,16.339 C56.5763983,16.302 56.6163983,16.26 56.6503983,16.212 C56.7793983,16.045 56.8673983,15.823 56.9053983,15.574 C56.9443983,15.322 56.9503983,14.925 56.9433983,14.642 C56.9113983,13.38 56.8293983,12.471 56.5993983,11.235 C56.5373983,10.864 56.6523983,10.475 56.9263983,10.196 C57.6873983,9.456 58.2423983,8.813 58.9303983,7.921 C59.1043983,7.696 59.3353983,7.372 59.4533983,7.145 C59.5703983,6.921 59.6313983,6.691 59.6253983,6.48 C59.6253983,6.422 59.6183983,6.364 59.6043983,6.308 C59.6043983,6.306 59.6043983,6.305 59.6043983,6.305 C59.5983983,6.284 59.5933983,6.265 59.5863983,6.246 C59.5803983,6.227 59.5743983,6.209 59.5663983,6.19 L59.5653983,6.187 C59.5423983,6.132 59.5143983,6.081 59.4793983,6.034 C59.3593983,5.861 59.1723983,5.71 58.9453983,5.597 C58.7153983,5.482 58.3363983,5.354 58.0623983,5.273 C57.0543983,4.976 56.2663983,4.785 55.3143983,4.635 C54.9393983,4.579 54.6023983,4.35 54.4193983,4.006 C53.8893983,2.918 53.4233983,2.149 52.7183983,1.135 C52.5553983,0.902 52.3153983,0.585 52.1343983,0.403 C51.9553983,0.224 51.7533983,0.095 51.5493983,0.036 C51.4933983,0.017 51.4363983,0.006 51.3783983,0.002 L51.3723983,0.001 C51.3523983,0 51.3323983,0 51.3123983,0 C51.2923983,0 51.2733983,0 51.2533983,0.001 L51.2473983,0.002 C51.1893983,0.006 51.1323983,0.017 51.0763983,0.036 C50.8723983,0.095 50.6703983,0.224 50.4913983,0.403 C50.3103983,0.585 50.0703983,0.902 49.9073983,1.135 C49.2023983,2.149 48.7353983,2.918 48.2053983,4.008 C48.0453983,4.337 47.7263983,4.564 47.3493983,4.629 C46.3753983,4.781 45.5893983,4.97 44.5633983,5.273 C44.2893983,5.354 43.9103983,5.483 43.6803983,5.597 C43.4533983,5.71 43.2673983,5.861 43.1463983,6.035 C43.1113983,6.082 43.0833983,6.132 43.0613983,6.186 L43.0593983,6.191 C43.0523983,6.209 43.0453983,6.227 43.0393983,6.246 C43.0333983,6.265 43.0273983,6.284 43.0223983,6.303 C43.0223983,6.303 43.0213983,6.307 43.0213983,6.308 C43.0073983,6.364 43.0003983,6.422 43.0003983,6.48 C42.9943983,6.691 43.0563983,6.921 43.1723983,7.145 C43.2913983,7.372 43.5213983,7.697 43.6953983,7.921 C44.3783983,8.805 44.9293983,9.445 45.6803983,10.177 Z" id="Stroke-10" stroke="#D3D5D4"></path>
            </g>
        </g>
    </g>
</svg>